Predicting Fuel Efficiency: US motor vehicles
…
Let’s compare the training models with bootstrapping in the dataset

results_train_1p_bt <- car_train_1p %>% 
  mutate(mpg_log = log(mpg),
         lreg = predict(cars_1p_lm_bt, car_train_1p),
         rfor = predict(cars_1p_rf_bt, car_train_1p)) %>% 
  select(mpg, mpg_log, lreg, rfor, everything())

results_train_1p_bt
#> # A tibble: 93 x 16
#>      mpg mpg_log  lreg  rfor displacement cylinders gears transmission
#>    <int>   <dbl> <dbl> <dbl>        <dbl>     <int> <int> <chr>       
#>  1    27    3.30  3.19  3.23          2           4     7 Manual      
#>  2    22    3.09  3.19  3.17          2.5         4     6 Manual      
#>  3    29    3.37  3.34  3.34          2           4     8 Automatic   
#>  4    23    3.14  3.13  3.13          2.4         4     6 Automatic   
#>  5    20    3.00  3.13  3.12          2.7         4     6 Automatic   
#>  6    23    3.14  3.14  3.16          3           6     8 Automatic   
#>  7    18    2.89  2.88  2.89          6.4         8     8 Automatic   
#>  8    20    3.00  3.00  2.98          3.3         6     6 Automatic   
#>  9    29    3.37  3.22  3.36          2           4     6 Automatic   
#> 10    19    2.94  2.99  2.95          3.5         6    10 Automatic   
#> # ... with 83 more rows, and 8 more variables: aspiration <chr>,
#> #   lockup_torque_converter <chr>, drive <chr>, max_ethanol <int>,
#> #   recommended_fuel <chr>, intake_valves_per_cyl <int>,
#> #   exhaust_valves_per_cyl <int>, fuel_injection <chr>
…
